…
Merge *pols*, *snp*, and *unemployment* dataframes together

``` r
problem1_df = left_join(pols, snp) |> 
  left_join(unemployment, copy = TRUE)
```

    ## Joining with `by = join_by(year, month)`
    ## Joining with `by = join_by(year, month)`

``` r
problem1_df
```

    ## # A tibble: 822 × 11
    ##    year  month gov_gop sen_gop rep_gop gov_dem sen_dem rep_dem president close
    ##    <chr> <chr>   <dbl>   <dbl>   <dbl>   <dbl>   <dbl>   <dbl> <chr>     <dbl>
    ##  1 1947  apr        23      51     253      23      45     198 dem          NA
    ##  2 1947  aug        23      51     253      23      45     198 dem          NA
    ##  3 1947  dec        24      51     253      23      45     198 dem          NA
    ##  4 1947  feb        23      51     253      23      45     198 dem          NA
    ##  5 1947  jan        23      51     253      23      45     198 dem          NA
    ##  6 1947  jul        23      51     253      23      45     198 dem          NA
    ##  7 1947  jun        23      51     253      23      45     198 dem          NA
    ##  8 1947  mar        23      51     253      23      45     198 dem          NA
    ##  9 1947  may        23      51     253      23      45     198 dem          NA
    ## 10 1947  nov        24      51     253      23      45     198 dem          NA
    ## # ℹ 812 more rows
    ## # ℹ 1 more variable: unemployment <dbl>
…
    ## New names:
    ## • `` -> `...15`
    ## • `` -> `...16`

``` r
mr.trash
```

    ## # A tibble: 584 × 16
    ##    dumpster month year  date                weight_tons volume_cubic_yards
    ##       <dbl> <chr> <chr> <dttm>                    <dbl>              <dbl>
    ##  1        1 May   2014  2014-05-16 00:00:00        4.31                 18
    ##  2        2 May   2014  2014-05-16 00:00:00        2.74                 13
    ##  3        3 May   2014  2014-05-16 00:00:00        3.45                 15
    ##  4        4 May   2014  2014-05-17 00:00:00        3.1                  15
    ##  5        5 May   2014  2014-05-17 00:00:00        4.06                 18
    ##  6        6 May   2014  2014-05-20 00:00:00        2.71                 13
    ##  7        7 May   2014  2014-05-21 00:00:00        1.91                  8
    ##  8        8 May   2014  2014-05-28 00:00:00        3.7                  16
    ##  9        9 June  2014  2014-06-05 00:00:00        2.52                 14
    ## 10       10 June  2014  2014-06-11 00:00:00        3.76                 18
    ## # ℹ 574 more rows
    ## # ℹ 10 more variables: plastic_bottles <dbl>, polystyrene <dbl>,
    ## #   cigarette_butts <dbl>, glass_bottles <dbl>, plastic_bags <dbl>,
    ## #   wrappers <dbl>, sports_balls <dbl>, homes_powered <dbl>, x15 <lgl>,
    ## #   x16 <lgl>

Clean *professor_trash* and *gwynnada_trash* dataframe

``` r
professor_trash = 
  read_excel("202309 Trash Wheel Collection Data.xlsx", sheet = 2) |>
  janitor::clean_names() |>
  mutate(homes_powered = weight_tons*500/30) |>
  mutate(year = as.character(year)) |>
  drop_na(dumpster)

professor_trash
```

    ## # A tibble: 106 × 13
    ##    dumpster month    year  date                weight_tons volume_cubic_yards
    ##       <dbl> <chr>    <chr> <dttm>                    <dbl>              <dbl>
    ##  1        1 January  2017  2017-01-02 00:00:00        1.79                 15
    ##  2        2 January  2017  2017-01-30 00:00:00        1.58                 15
    ##  3        3 February 2017  2017-02-26 00:00:00        2.32                 18
    ##  4        4 February 2017  2017-02-26 00:00:00        3.72                 15
    ##  5        5 February 2017  2017-02-28 00:00:00        1.45                 15
    ##  6        6 March    2017  2017-03-30 00:00:00        1.71                 15
    ##  7        7 April    2017  2017-04-01 00:00:00        1.82                 15
    ##  8        8 April    2017  2017-04-20 00:00:00        2.37                 15
    ##  9        9 May      2017  2017-05-10 00:00:00        2.64                 15
    ## 10       10 May      2017  2017-05-26 00:00:00        2.78                 15
    ## # ℹ 96 more rows
    ## # ℹ 7 more variables: plastic_bottles <dbl>, polystyrene <dbl>,
    ## #   cigarette_butts <dbl>, glass_bottles <dbl>, plastic_bags <dbl>,
    ## #   wrappers <dbl>, homes_powered <dbl>

``` r
gwynnda_trash = 
  read_excel("202309 Trash Wheel Collection Data.xlsx", sheet = 4) |>
  janitor::clean_names() |>
  mutate(homes_powered = weight_tons*500/30) |>
  mutate(year = as.character(year)) |>
  drop_na(dumpster)

gwynnda_trash
```

    ## # A tibble: 155 × 12
    ##    dumpster month  year  date                weight_tons volume_cubic_yards
    ##       <dbl> <chr>  <chr> <dttm>                    <dbl>              <dbl>
    ##  1        1 July   2021  2021-07-03 00:00:00        0.93                 15
    ##  2        2 July   2021  2021-07-07 00:00:00        2.26                 15
    ##  3        3 July   2021  2021-07-07 00:00:00        1.62                 15
    ##  4        4 July   2021  2021-07-16 00:00:00        1.76                 15
    ##  5        5 July   2021  2021-07-30 00:00:00        1.53                 15
    ##  6        6 August 2021  2021-08-11 00:00:00        2.06                 15
    ##  7        7 August 2021  2021-08-14 00:00:00        1.9                  15
    ##  8        8 August 2021  2021-08-16 00:00:00        2.16                 15
    ##  9        9 August 2021  2021-08-16 00:00:00        2.6                  15
    ## 10       10 August 2021  2021-08-17 00:00:00        3.21                 15
    ## # ℹ 145 more rows
    ## # ℹ 6 more variables: plastic_bottles <dbl>, polystyrene <dbl>,
    ## #   cigarette_butts <dbl>, plastic_bags <dbl>, wrappers <dbl>,
    ## #   homes_powered <dbl>
…
    ## Joining with `by = join_by(dumpster, month, year, date, weight_tons,
    ## volume_cubic_yards, plastic_bottles, polystyrene, cigarette_butts,
    ## glass_bottles, plastic_bags, wrappers, homes_powered)`
    ## Joining with `by = join_by(dumpster, month, year, date, weight_tons,
    ## volume_cubic_yards, plastic_bottles, polystyrene, cigarette_butts,
    ## plastic_bags, wrappers, homes_powered)`

``` r
trash_df
```

    ## # A tibble: 845 × 14
    ##    dumpster month year  date                weight_tons volume_cubic_yards
    ##       <dbl> <chr> <chr> <dttm>                    <dbl>              <dbl>
    ##  1        1 May   2014  2014-05-16 00:00:00        4.31                 18
    ##  2        2 May   2014  2014-05-16 00:00:00        2.74                 13
    ##  3        3 May   2014  2014-05-16 00:00:00        3.45                 15
    ##  4        4 May   2014  2014-05-17 00:00:00        3.1                  15
    ##  5        5 May   2014  2014-05-17 00:00:00        4.06                 18
    ##  6        6 May   2014  2014-05-20 00:00:00        2.71                 13
    ##  7        7 May   2014  2014-05-21 00:00:00        1.91                  8
    ##  8        8 May   2014  2014-05-28 00:00:00        3.7                  16
    ##  9        9 June  2014  2014-06-05 00:00:00        2.52                 14
    ## 10       10 June  2014  2014-06-11 00:00:00        3.76                 18
    ## # ℹ 835 more rows
    ## # ℹ 8 more variables: plastic_bottles <dbl>, polystyrene <dbl>,
    ## #   cigarette_butts <dbl>, glass_bottles <dbl>, plastic_bags <dbl>,
    ## #   wrappers <dbl>, sports_balls <dbl>, homes_powered <dbl>
…
mci_amyloid
```

    ## # A tibble: 2,435 × 3
    ##    id    time     amyloid_ratio
    ##    <chr> <chr>    <chr>        
    ##  1 1     baseline 0.1105487    
    ##  2 1     time2    <NA>         
    ##  3 1     time4    0.109325197  
    ##  4 1     time6    0.104756131  
    ##  5 1     time8    0.107257697  
    ##  6 2     baseline 0.107481183  
    ##  7 2     time2    0.109157373  
    ##  8 2     time4    0.109457839  
    ##  9 2     time6    0.105729713  
    ## 10 2     time8    0.10661845   
    ## # ℹ 2,425 more rows
